Interpolation/interpolator.vcd
$date
     Apr 24, 2026       13:22:49
$end

$version
 SystemC 3.0.0-Accellera --- May 18 2021 00:00:00
$end

$timescale
     1 ns
$end

$scope module SystemC $end
$var wire    1  aaaaa  clk       $end
$var wire    1  aaaab  reset       $end
$var wire    8  aaaac  num [7:0]  $end
$var wire    8  aaaad  output [7:0]  $end
$var wire    8  aaaae  output_interpolated [7:0]  $end
$upscope $end
$enddefinitions  $end

$comment
All initial values are dumped below at time 0 sec = 0 timescale units.
$end

$dumpvars
1aaaaa
1aaaab
b0 aaaac
b0 aaaad
b0 aaaae
$end

#2
0aaaaa

#5
1aaaaa

#7
0aaaaa

#10
1aaaaa

#12
0aaaaa

#15
1aaaaa
0aaaab
b1 aaaac

#17
0aaaaa

#20
1aaaaa
b1010 aaaac
b1 aaaad
b1 aaaae

#22
0aaaaa

#25
1aaaaa
b10100 aaaac
b1010 aaaad
b101 aaaae

#27
0aaaaa

#30
1aaaaa
b11110 aaaac
b10100 aaaad
b1111 aaaae

#32
0aaaaa

#35
1aaaaa
b11111 aaaac
b11110 aaaad
b11001 aaaae

#37
0aaaaa

#40
1aaaaa
b1 aaaac
b11111 aaaad
b11110 aaaae

#42
0aaaaa

#45
1aaaaa
b1010 aaaac
b1 aaaad
b10000 aaaae

#47
0aaaaa

#50
1aaaaa
b10100 aaaac
b1010 aaaad
b101 aaaae

#52
0aaaaa

#55
1aaaaa
b11110 aaaac
b10100 aaaad
b1111 aaaae

#57
0aaaaa

#60
1aaaaa
b11111 aaaac
b11110 aaaad
b11001 aaaae

#62
0aaaaa

#65
1aaaaa
b1 aaaac
b11111 aaaad
b11110 aaaae

#67
0aaaaa

#70
1aaaaa
b1010 aaaac
b1 aaaad
b10000 aaaae

#72
0aaaaa

#75
1aaaaa
b10100 aaaac
b1010 aaaad
b101 aaaae

#77
0aaaaa

#80
1aaaaa
b11110 aaaac
b10100 aaaad
b1111 aaaae

#82
0aaaaa

#85
1aaaaa
b11111 aaaac
b11110 aaaad
b11001 aaaae

#87
0aaaaa

#90
1aaaaa
b1 aaaac
b11111 aaaad
b11110 aaaae

#92
0aaaaa

#95
1aaaaa
b1010 aaaac
b1 aaaad
b10000 aaaae

#97
0aaaaa

#100
1aaaaa
b10100 aaaac
b1010 aaaad
b101 aaaae

#102
0aaaaa

#105
1aaaaa
b11110 aaaac
b10100 aaaad
b1111 aaaae

#107
0aaaaa

#110
1aaaaa
b11111 aaaac
b11110 aaaad
b11001 aaaae

#112
0aaaaa

#115
1aaaaa
b1 aaaac
b11111 aaaad
b11110 aaaae

#117
0aaaaa

#120
1aaaaa
b1010 aaaac
b1 aaaad
b10000 aaaae

#122
0aaaaa

#125
1aaaaa
b10100 aaaac
b1010 aaaad
b101 aaaae

#127
0aaaaa

#130
1aaaaa
b11110 aaaac
b10100 aaaad
b1111 aaaae

#132
0aaaaa

#135
1aaaaa
b11111 aaaac
b11110 aaaad
b11001 aaaae

#137
0aaaaa

#140
1aaaaa
b1 aaaac
b11111 aaaad
b11110 aaaae

#142
0aaaaa

#145
1aaaaa
b1010 aaaac
b1 aaaad
b10000 aaaae

#147
0aaaaa

#150
1aaaaa
b10100 aaaac
b1010 aaaad
b101 aaaae

#152
0aaaaa

#155
1aaaaa
b11110 aaaac
b10100 aaaad
b1111 aaaae

#157
0aaaaa

#160
1aaaaa
b11111 aaaac
b11110 aaaad
b11001 aaaae

#162
0aaaaa

#165
1aaaaa
b1 aaaac
b11111 aaaad
b11110 aaaae

#167
0aaaaa

#170
1aaaaa
b1010 aaaac
b1 aaaad
b10000 aaaae

#172
0aaaaa

#175
1aaaaa
b10100 aaaac
b1010 aaaad
b101 aaaae

#177
0aaaaa

#180
1aaaaa
b11110 aaaac
b10100 aaaad
b1111 aaaae

#182
0aaaaa

#185
1aaaaa
b11111 aaaac
b11110 aaaad
b11001 aaaae

#187
0aaaaa

#190
1aaaaa
b1 aaaac
b11111 aaaad
b11110 aaaae

#192
0aaaaa

#195
1aaaaa
b1010 aaaac
b1 aaaad
b10000 aaaae

#197
0aaaaa

#200
1aaaaa
b10100 aaaac
b1010 aaaad
b101 aaaae

#202
0aaaaa

#205
1aaaaa
b11110 aaaac
b10100 aaaad
b1111 aaaae

#207
0aaaaa

#210
1aaaaa
b11111 aaaac
b11110 aaaad
b11001 aaaae

#212
0aaaaa

#215
1aaaaa
b1 aaaac
b11111 aaaad
b11110 aaaae

#217
0aaaaa

#220
1aaaaa
b1010 aaaac
b1 aaaad
b10000 aaaae

#222
0aaaaa

#225
1aaaaa
b10100 aaaac
b1010 aaaad
b101 aaaae

#227
0aaaaa

#230
1aaaaa
b11110 aaaac
b10100 aaaad
b1111 aaaae

#232
0aaaaa

#235
1aaaaa
b11111 aaaac
b11110 aaaad
b11001 aaaae

#237
0aaaaa

#240
1aaaaa
b1 aaaac
b11111 aaaad
b11110 aaaae

#242
0aaaaa

#245
1aaaaa
b1010 aaaac
b1 aaaad
b10000 aaaae

#247
0aaaaa

#250
1aaaaa
b10100 aaaac
b1010 aaaad
b101 aaaae

#252
0aaaaa

#255
1aaaaa
b11110 aaaac
b10100 aaaad
b1111 aaaae

#257
0aaaaa

#260
1aaaaa
b11111 aaaac
b11110 aaaad
b11001 aaaae

#262
0aaaaa

#265
1aaaaa
b1 aaaac
b11111 aaaad
b11110 aaaae

#267
0aaaaa

#270
1aaaaa
b1010 aaaac
b1 aaaad
b10000 aaaae

#272
0aaaaa

#275
1aaaaa
b10100 aaaac
b1010 aaaad
b101 aaaae

#277
0aaaaa

#280
1aaaaa
b11110 aaaac
b10100 aaaad
b1111 aaaae

#282
0aaaaa

#285
1aaaaa
b11111 aaaac
b11110 aaaad
b11001 aaaae

#287
0aaaaa

#290
1aaaaa
b1 aaaac
b11111 aaaad
b11110 aaaae

#292
0aaaaa

#295
1aaaaa
b1010 aaaac
b1 aaaad
b10000 aaaae

#297
0aaaaa

#300
1aaaaa
b10100 aaaac
b1010 aaaad
b101 aaaae

#302
0aaaaa

#305
1aaaaa
b11110 aaaac
b10100 aaaad
b1111 aaaae

#307
0aaaaa

#310
1aaaaa
b11111 aaaac
b11110 aaaad
b11001 aaaae

#312
0aaaaa

#315
1aaaaa
b1 aaaac
b11111 aaaad
b11110 aaaae

#317
0aaaaa

#320
1aaaaa
b1010 aaaac
b1 aaaad
b10000 aaaae

#322
0aaaaa

#325
1aaaaa
b10100 aaaac
b1010 aaaad
b101 aaaae

#327
0aaaaa

#330
1aaaaa
b11110 aaaac
b10100 aaaad
b1111 aaaae

#332
0aaaaa

#335
1aaaaa
b11111 aaaac
b11110 aaaad
b11001 aaaae

#337
0aaaaa

#340
1aaaaa
b1 aaaac
b11111 aaaad
b11110 aaaae

#342
0aaaaa

#345
1aaaaa
b1010 aaaac
b1 aaaad
b10000 aaaae

#347
0aaaaa

#350
1aaaaa
b10100 aaaac
b1010 aaaad
b101 aaaae

#352
0aaaaa

#355
1aaaaa
b11110 aaaac
b10100 aaaad
b1111 aaaae

#357
0aaaaa

#360
1aaaaa
b11111 aaaac
b11110 aaaad
b11001 aaaae

#362
0aaaaa

#365
1aaaaa
b1 aaaac
b11111 aaaad
b11110 aaaae

#367
0aaaaa

#370
1aaaaa
b1010 aaaac
b1 aaaad
b10000 aaaae

#372
0aaaaa

#375
1aaaaa
b10100 aaaac
b1010 aaaad
b101 aaaae

#377
0aaaaa

#380
1aaaaa
b11110 aaaac
b10100 aaaad
b1111 aaaae

#382
0aaaaa

#385
1aaaaa
b11111 aaaac
b11110 aaaad
b11001 aaaae

#387
0aaaaa

#390
1aaaaa
b1 aaaac
b11111 aaaad
b11110 aaaae

#392
0aaaaa

#395
1aaaaa
b1010 aaaac
b1 aaaad
b10000 aaaae

#397
0aaaaa

#400
1aaaaa
b10100 aaaac
b1010 aaaad
b101 aaaae

#402
0aaaaa

#405
1aaaaa
b11110 aaaac
b10100 aaaad
b1111 aaaae

#407
0aaaaa

#410
1aaaaa
b11111 aaaac
b11110 aaaad
b11001 aaaae

#412
0aaaaa

#415
1aaaaa
b1 aaaac
b11111 aaaad
b11110 aaaae

#417
0aaaaa

#420
1aaaaa
b1010 aaaac
b1 aaaad
b10000 aaaae

#422
0aaaaa

#425
1aaaaa
b10100 aaaac
b1010 aaaad
b101 aaaae

#427
0aaaaa

#430
1aaaaa
b11110 aaaac
b10100 aaaad
b1111 aaaae

#432
0aaaaa

#435
1aaaaa
b11111 aaaac
b11110 aaaad
b11001 aaaae

#437
0aaaaa

#440
1aaaaa
b1 aaaac
b11111 aaaad
b11110 aaaae

#442
0aaaaa

#445
1aaaaa
b1010 aaaac
b1 aaaad
b10000 aaaae

#447
0aaaaa

#450
1aaaaa
b10100 aaaac
b1010 aaaad
b101 aaaae

#452
0aaaaa

#455
1aaaaa
b11110 aaaac
b10100 aaaad
b1111 aaaae

#457
0aaaaa

#460
1aaaaa
b11111 aaaac
b11110 aaaad
b11001 aaaae

#462
0aaaaa

#465
1aaaaa
b1 aaaac
b11111 aaaad
b11110 aaaae

#467
0aaaaa

#470
1aaaaa
b1010 aaaac
b1 aaaad
b10000 aaaae

#472
0aaaaa

#475
1aaaaa
b10100 aaaac
b1010 aaaad
b101 aaaae

#477
0aaaaa

#480
1aaaaa
b11110 aaaac
b10100 aaaad
b1111 aaaae

#482
0aaaaa

#485
1aaaaa
b11111 aaaac
b11110 aaaad
b11001 aaaae

#487
0aaaaa

#490
1aaaaa
b1 aaaac
b11111 aaaad
b11110 aaaae

#492
0aaaaa

#495
1aaaaa
b1010 aaaac
b1 aaaad
b10000 aaaae

#497
0aaaaa

#500
1aaaaa
b10100 aaaac
b1010 aaaad
b101 aaaae

#502
0aaaaa

#505
1aaaaa
b11110 aaaac
b10100 aaaad
b1111 aaaae

#507
0aaaaa

#510
1aaaaa
b11111 aaaac
b11110 aaaad
b11001 aaaae

#512
0aaaaa

#515
1aaaaa
b1 aaaac
b11111 aaaad
b11110 aaaae

#517
0aaaaa

#520
1aaaaa
b1010 aaaac
b1 aaaad
b10000 aaaae

#522
0aaaaa

#525
1aaaaa
b10100 aaaac
b1010 aaaad
b101 aaaae

#527
0aaaaa

#530
1aaaaa
b11110 aaaac
b10100 aaaad
b1111 aaaae

#532
0aaaaa

#535
1aaaaa
b11111 aaaac
b11110 aaaad
b11001 aaaae

#537
0aaaaa

#540
1aaaaa
b1 aaaac
b11111 aaaad
b11110 aaaae

#542
0aaaaa

#545
1aaaaa
b1010 aaaac
b1 aaaad
b10000 aaaae

#547
0aaaaa

#550
1aaaaa
b10100 aaaac
b1010 aaaad
b101 aaaae

#552
0aaaaa

#555
1aaaaa
b11110 aaaac
b10100 aaaad
b1111 aaaae

#557
0aaaaa

#560
1aaaaa
b11111 aaaac
b11110 aaaad
b11001 aaaae

#562
0aaaaa

#565
1aaaaa
b1 aaaac
b11111 aaaad
b11110 aaaae

#567
0aaaaa

#570
1aaaaa
b1010 aaaac
b1 aaaad
b10000 aaaae

#572
0aaaaa

#575
1aaaaa
b10100 aaaac
b1010 aaaad
b101 aaaae

#577
0aaaaa

#580
1aaaaa
b11110 aaaac
b10100 aaaad
b1111 aaaae

#582
0aaaaa

#585
1aaaaa
b11111 aaaac
b11110 aaaad
b11001 aaaae

#587
0aaaaa

#590
1aaaaa
b1 aaaac
b11111 aaaad
b11110 aaaae

#592
0aaaaa

#595
1aaaaa
b1010 aaaac
b1 aaaad
b10000 aaaae

#597
0aaaaa

#600
1aaaaa
b10100 aaaac
b1010 aaaad
b101 aaaae

#602
0aaaaa

#605
1aaaaa
b11110 aaaac
b10100 aaaad
b1111 aaaae

#607
0aaaaa

#610
1aaaaa
b11111 aaaac
b11110 aaaad
b11001 aaaae

#612
0aaaaa

#615
1aaaaa
b1 aaaac
b11111 aaaad
b11110 aaaae

#617
0aaaaa

#620
1aaaaa
b1010 aaaac
b1 aaaad
b10000 aaaae

#622
0aaaaa

#625
1aaaaa
b10100 aaaac
b1010 aaaad
b101 aaaae

#627
0aaaaa

#630
1aaaaa
b11110 aaaac
b10100 aaaad
b1111 aaaae

#632
0aaaaa

#635
1aaaaa
b11111 aaaac
b11110 aaaad
b11001 aaaae

#637
0aaaaa

#640
1aaaaa
b1 aaaac
b11111 aaaad
b11110 aaaae

#642
0aaaaa

#645
1aaaaa
b1010 aaaac
b1 aaaad
b10000 aaaae

#647
0aaaaa

#650
1aaaaa
b10100 aaaac
b1010 aaaad
b101 aaaae

#652
0aaaaa

#655
1aaaaa
b11110 aaaac
b10100 aaaad
b1111 aaaae

#657
0aaaaa

#660
1aaaaa
b11111 aaaac
b11110 aaaad
b11001 aaaae

#662
0aaaaa

#665
1aaaaa
b1 aaaac
b11111 aaaad
b11110 aaaae

#667
0aaaaa

#670
1aaaaa
b1010 aaaac
b1 aaaad
b10000 aaaae

#672
0aaaaa

#675
1aaaaa
b10100 aaaac
b1010 aaaad
b101 aaaae

#677
0aaaaa

#680
1aaaaa
b11110 aaaac
b10100 aaaad
b1111 aaaae

#682
0aaaaa

#685
1aaaaa
b11111 aaaac
b11110 aaaad
b11001 aaaae

#687
0aaaaa

#690
1aaaaa
b1 aaaac
b11111 aaaad
b11110 aaaae

#692
0aaaaa

#695
1aaaaa
b1010 aaaac
b1 aaaad
b10000 aaaae

#697
0aaaaa

#700
1aaaaa
b10100 aaaac
b1010 aaaad
b101 aaaae

#702
0aaaaa

#705
1aaaaa
b11110 aaaac
b10100 aaaad
b1111 aaaae

#707
0aaaaa

#710
1aaaaa
b11111 aaaac
b11110 aaaad
b11001 aaaae

#712
0aaaaa

#715
1aaaaa
b1 aaaac
b11111 aaaad
b11110 aaaae

#717
0aaaaa

#720
1aaaaa
b1010 aaaac
b1 aaaad
b10000 aaaae

#722
0aaaaa

#725
1aaaaa
b10100 aaaac
b1010 aaaad
b101 aaaae

#727
0aaaaa

#730
1aaaaa
b11110 aaaac
b10100 aaaad
b1111 aaaae

#732
0aaaaa

#735
1aaaaa
b11111 aaaac
b11110 aaaad
b11001 aaaae

#737
0aaaaa

#740
1aaaaa
b1 aaaac
b11111 aaaad
b11110 aaaae

#742
0aaaaa

#745
1aaaaa
b1010 aaaac
b1 aaaad
b10000 aaaae

#747
0aaaaa

#750
1aaaaa
b10100 aaaac
b1010 aaaad
b101 aaaae

#752
0aaaaa

#755
1aaaaa
b11110 aaaac
b10100 aaaad
b1111 aaaae

#757
0aaaaa

#760
1aaaaa
b11111 aaaac
b11110 aaaad
b11001 aaaae

#762
0aaaaa

#765
1aaaaa
b1 aaaac
b11111 aaaad
b11110 aaaae

#767
0aaaaa

#770
1aaaaa
b1010 aaaac
b1 aaaad
b10000 aaaae

#772
0aaaaa

#775
1aaaaa
b10100 aaaac
b1010 aaaad
b101 aaaae

#777
0aaaaa

#780
1aaaaa
b11110 aaaac
b10100 aaaad
b1111 aaaae

#782
0aaaaa

#785
1aaaaa
b11111 aaaac
b11110 aaaad
b11001 aaaae

#787
0aaaaa

#790
1aaaaa
b1 aaaac
b11111 aaaad
b11110 aaaae

#792
0aaaaa

#795
1aaaaa
b1010 aaaac
b1 aaaad
b10000 aaaae

#797
0aaaaa

#800
1aaaaa
b10100 aaaac
b1010 aaaad
b101 aaaae

#802
0aaaaa

#805
1aaaaa
b11110 aaaac
b10100 aaaad
b1111 aaaae

#807
0aaaaa

#810
1aaaaa
b11111 aaaac
b11110 aaaad
b11001 aaaae

#812
0aaaaa

#815
1aaaaa
b1 aaaac
b11111 aaaad
b11110 aaaae

#817
0aaaaa

#820
1aaaaa
b1010 aaaac
b1 aaaad
b10000 aaaae

#822
0aaaaa

#825
1aaaaa
b10100 aaaac
b1010 aaaad
b101 aaaae

#827
0aaaaa

#830
1aaaaa
b11110 aaaac
b10100 aaaad
b1111 aaaae

#832
0aaaaa

#835
1aaaaa
b11111 aaaac
b11110 aaaad
b11001 aaaae

#837
0aaaaa

#840
1aaaaa
b1 aaaac
b11111 aaaad
b11110 aaaae

#842
0aaaaa

#845
1aaaaa
b1010 aaaac
b1 aaaad
b10000 aaaae

#847
0aaaaa

#850
1aaaaa
b10100 aaaac
b1010 aaaad
b101 aaaae

#852
0aaaaa

#855
1aaaaa
b11110 aaaac
b10100 aaaad
b1111 aaaae

#857
0aaaaa

#860
1aaaaa
b11111 aaaac
b11110 aaaad
b11001 aaaae

#862
0aaaaa

#865
1aaaaa
b1 aaaac
b11111 aaaad
b11110 aaaae

#867
0aaaaa

#870
1aaaaa
b1010 aaaac
b1 aaaad
b10000 aaaae

#872
0aaaaa

#875
1aaaaa
b10100 aaaac
b1010 aaaad
b101 aaaae

#877
0aaaaa

#880
1aaaaa
b11110 aaaac
b10100 aaaad
b1111 aaaae

#882
0aaaaa

#885
1aaaaa
b11111 aaaac
b11110 aaaad
b11001 aaaae

#887
0aaaaa

#890
1aaaaa
b1 aaaac
b11111 aaaad
b11110 aaaae

#892
0aaaaa

#895
1aaaaa
b1010 aaaac
b1 aaaad
b10000 aaaae

#897
0aaaaa

#900
1aaaaa
b10100 aaaac
b1010 aaaad
b101 aaaae

#902
0aaaaa

#905
1aaaaa
b11110 aaaac
b10100 aaaad
b1111 aaaae

#907
0aaaaa

#910
1aaaaa
b11111 aaaac
b11110 aaaad
b11001 aaaae

#912
0aaaaa

#915
1aaaaa
b1 aaaac
b11111 aaaad
b11110 aaaae

#917
0aaaaa

#920
1aaaaa
b1010 aaaac
b1 aaaad
b10000 aaaae

#922
0aaaaa

#925
1aaaaa
b10100 aaaac
b1010 aaaad
b101 aaaae

#927
0aaaaa

#930
1aaaaa
b11110 aaaac
b10100 aaaad
b1111 aaaae

#932
0aaaaa

#935
1aaaaa
b11111 aaaac
b11110 aaaad
b11001 aaaae

#937
0aaaaa

#940
1aaaaa
b1 aaaac
b11111 aaaad
b11110 aaaae

#942
0aaaaa

#945
1aaaaa
b1010 aaaac
b1 aaaad
b10000 aaaae

#947
0aaaaa

#950
1aaaaa
b10100 aaaac
b1010 aaaad
b101 aaaae

#952
0aaaaa

#955
1aaaaa
b11110 aaaac
b10100 aaaad
b1111 aaaae

#957
0aaaaa

#960
1aaaaa
b11111 aaaac
b11110 aaaad
b11001 aaaae

#962
0aaaaa

#965
1aaaaa
b1 aaaac
b11111 aaaad
b11110 aaaae

#967
0aaaaa

#970
1aaaaa
b1010 aaaac
b1 aaaad
b10000 aaaae

#972
0aaaaa

#975
1aaaaa
b10100 aaaac
b1010 aaaad
b101 aaaae

#977
0aaaaa

#980
1aaaaa
b11110 aaaac
b10100 aaaad
b1111 aaaae

#982
0aaaaa

#985
1aaaaa
b11111 aaaac
b11110 aaaad
b11001 aaaae

#987
0aaaaa

#990
1aaaaa
b1 aaaac
b11111 aaaad
b11110 aaaae

#992
0aaaaa

#995
1aaaaa
b1010 aaaac
b1 aaaad
b10000 aaaae

#997
0aaaaa

#1000
1aaaaa
b10100 aaaac
b1010 aaaad
b101 aaaae

#1002
0aaaaa

#1005
1aaaaa
b11110 aaaac
b10100 aaaad
b1111 aaaae

#1007
0aaaaa

#1010
1aaaaa
b11111 aaaac
b11110 aaaad
b11001 aaaae

#1012
0aaaaa

#1015
1aaaaa
b1 aaaac
b11111 aaaad
b11110 aaaae

#1017
0aaaaa

#1020
1aaaaa
b1010 aaaac
b1 aaaad
b10000 aaaae

#1022
0aaaaa

#1025
1aaaaa
b10100 aaaac
b1010 aaaad
b101 aaaae

#1027
0aaaaa

#1030
1aaaaa
b11110 aaaac
b10100 aaaad
b1111 aaaae

#1032
0aaaaa

#1035
1aaaaa
b11111 aaaac
b11110 aaaad
b11001 aaaae

#1037
0aaaaa

#1040
1aaaaa
b1 aaaac
b11111 aaaad
b11110 aaaae

#1042
0aaaaa

#1045
1aaaaa
b1010 aaaac
b1 aaaad
b10000 aaaae

#1047
0aaaaa

#1050
1aaaaa
b10100 aaaac
b1010 aaaad
b101 aaaae

#1052
0aaaaa

#1055
1aaaaa
b11110 aaaac
b10100 aaaad
b1111 aaaae

#1057
0aaaaa

#1060
1aaaaa
b11111 aaaac
b11110 aaaad
b11001 aaaae

#1062
0aaaaa

#1065
1aaaaa
b1 aaaac
b11111 aaaad
b11110 aaaae

#1067
0aaaaa

#1070
1aaaaa
b1010 aaaac
b1 aaaad
b10000 aaaae

#1072
0aaaaa

#1075
1aaaaa
b10100 aaaac
b1010 aaaad
b101 aaaae

#1077
0aaaaa

#1080
1aaaaa
b11110 aaaac
b10100 aaaad
b1111 aaaae

#1082
0aaaaa

#1085
1aaaaa
b11111 aaaac
b11110 aaaad
b11001 aaaae

#1087
0aaaaa

#1090
1aaaaa
b1 aaaac
b11111 aaaad
b11110 aaaae

#1092
0aaaaa

#1095
1aaaaa
b1010 aaaac
b1 aaaad
b10000 aaaae

#1097
0aaaaa

#1100
1aaaaa
b10100 aaaac
b1010 aaaad
b101 aaaae

#1102
0aaaaa

#1105
1aaaaa
b11110 aaaac
b10100 aaaad
b1111 aaaae

#1107
0aaaaa

#1110
1aaaaa
b11111 aaaac
b11110 aaaad
b11001 aaaae

#1112
0aaaaa

#1115
1aaaaa
b1 aaaac
b11111 aaaad
b11110 aaaae

#1117
0aaaaa

#1120
1aaaaa
b1010 aaaac
b1 aaaad
b10000 aaaae

#1122
0aaaaa

#1125
1aaaaa
b10100 aaaac
b1010 aaaad
b101 aaaae

#1127
0aaaaa

#1130
1aaaaa
b11110 aaaac
b10100 aaaad
b1111 aaaae

#1132
0aaaaa

#1135
1aaaaa
b11111 aaaac
b11110 aaaad
b11001 aaaae

#1137
0aaaaa

#1140
1aaaaa
b1 aaaac
b11111 aaaad
b11110 aaaae

#1142
0aaaaa

#1145
1aaaaa
b1010 aaaac
b1 aaaad
b10000 aaaae

#1147
0aaaaa

#1150
1aaaaa
b10100 aaaac
b1010 aaaad
b101 aaaae

#1152
0aaaaa

#1155
1aaaaa
b11110 aaaac
b10100 aaaad
b1111 aaaae

#1157
0aaaaa

#1160
1aaaaa
b11111 aaaac
b11110 aaaad
b11001 aaaae

#1162
0aaaaa

#1165
1aaaaa
b1 aaaac
b11111 aaaad
b11110 aaaae

#1167
0aaaaa

#1170
1aaaaa
b1010 aaaac
b1 aaaad
b10000 aaaae

#1172
0aaaaa

#1175
1aaaaa
b10100 aaaac
b1010 aaaad
b101 aaaae

#1177
0aaaaa

#1180
1aaaaa
b11110 aaaac
b10100 aaaad
b1111 aaaae

#1182
0aaaaa

#1185
1aaaaa
b11111 aaaac
b11110 aaaad
b11001 aaaae

#1187
0aaaaa

#1190
1aaaaa
b1 aaaac
b11111 aaaad
b11110 aaaae

#1192
0aaaaa

#1195
1aaaaa
b1010 aaaac
b1 aaaad
b10000 aaaae

#1197
0aaaaa

#1200
1aaaaa
b10100 aaaac
b1010 aaaad
b101 aaaae

#1202
0aaaaa

#1205
1aaaaa
b11110 aaaac
b10100 aaaad
b1111 aaaae

#1207
0aaaaa

#1210
1aaaaa
b11111 aaaac
b11110 aaaad
b11001 aaaae

#1212
0aaaaa

#1215
1aaaaa
b1 aaaac
b11111 aaaad
b11110 aaaae

#1217
0aaaaa

#1220
1aaaaa
b1010 aaaac
b1 aaaad
b10000 aaaae

#1222
0aaaaa

#1225
1aaaaa
b10100 aaaac
b1010 aaaad
b101 aaaae

#1227
0aaaaa

#1230
1aaaaa
b11110 aaaac
b10100 aaaad
b1111 aaaae

#1232
0aaaaa

#1235
1aaaaa
b11111 aaaac
b11110 aaaad
b11001 aaaae

#1237
0aaaaa

#1240
1aaaaa
b1 aaaac
b11111 aaaad
b11110 aaaae

#1242
0aaaaa

#1245
1aaaaa
b1010 aaaac
b1 aaaad
b10000 aaaae

#1247
0aaaaa

#1250
1aaaaa
b10100 aaaac
b1010 aaaad
b101 aaaae

#1252
0aaaaa

#1255
1aaaaa
b11110 aaaac
b10100 aaaad
b1111 aaaae

#1257
0aaaaa

#1260
1aaaaa
b11111 aaaac
b11110 aaaad
b11001 aaaae

#1262
0aaaaa

#1265
1aaaaa
b1 aaaac
b11111 aaaad
b11110 aaaae

#1267
0aaaaa

#1270
1aaaaa
b1010 aaaac
b1 aaaad
b10000 aaaae

#1272
0aaaaa

#1275
1aaaaa
b10100 aaaac
b1010 aaaad
b101 aaaae

#1277
0aaaaa

#1280
1aaaaa
b11110 aaaac
b10100 aaaad
b1111 aaaae

#1282
0aaaaa

#1285
1aaaaa
b11111 aaaac
b11110 aaaad
b11001 aaaae

#1287
0aaaaa

#1290
1aaaaa
b1 aaaac
b11111 aaaad
b11110 aaaae

#1292
0aaaaa

#1295
1aaaaa
b1010 aaaac
b1 aaaad
b10000 aaaae

#1297
0aaaaa

#1300
1aaaaa
b10100 aaaac
b1010 aaaad
b101 aaaae

#1302
0aaaaa

#1305
1aaaaa
b11110 aaaac
b10100 aaaad
b1111 aaaae

#1307
0aaaaa

#1310
1aaaaa
b11111 aaaac
b11110 aaaad
b11001 aaaae

#1312
0aaaaa

#1315
1aaaaa
b1 aaaac
b11111 aaaad
b11110 aaaae

#1317
0aaaaa

#1320
1aaaaa
b1010 aaaac
b1 aaaad
b10000 aaaae

#1322
0aaaaa

#1325
1aaaaa
b10100 aaaac
b1010 aaaad
b101 aaaae

#1327
0aaaaa

#1330
1aaaaa
b11110 aaaac
b10100 aaaad
b1111 aaaae

#1332
0aaaaa

#1335
1aaaaa
b11111 aaaac
b11110 aaaad
b11001 aaaae

#1337
0aaaaa

#1340
1aaaaa
b1 aaaac
b11111 aaaad
b11110 aaaae

#1342
0aaaaa

#1345
1aaaaa
b1010 aaaac
b1 aaaad
b10000 aaaae

#1347
0aaaaa

#1350
1aaaaa
b10100 aaaac
b1010 aaaad
b101 aaaae

#1352
0aaaaa

#1355
1aaaaa
b11110 aaaac
b10100 aaaad
b1111 aaaae

#1357
0aaaaa

#1360
1aaaaa
b11111 aaaac
b11110 aaaad
b11001 aaaae

#1362
0aaaaa

#1365
1aaaaa
b1 aaaac
b11111 aaaad
b11110 aaaae

#1367
0aaaaa

#1370
1aaaaa
b1010 aaaac
b1 aaaad
b10000 aaaae

#1372
0aaaaa

#1375
1aaaaa
b10100 aaaac
b1010 aaaad
b101 aaaae

#1377
0aaaaa

#1380
1aaaaa
b11110 aaaac
b10100 aaaad
b1111 aaaae

#1382
0aaaaa

#1385
1aaaaa
b11111 aaaac
b11110 aaaad
b11001 aaaae

#1387
0aaaaa

#1390
1aaaaa
b1 aaaac
b11111 aaaad
b11110 aaaae

#1392
0aaaaa

#1395
1aaaaa
b1010 aaaac
b1 aaaad
b10000 aaaae

#1397
0aaaaa

#1400
1aaaaa
b10100 aaaac
b1010 aaaad
b101 aaaae

#1402
0aaaaa

#1405
1aaaaa
b11110 aaaac
b10100 aaaad
b1111 aaaae

#1407
0aaaaa

#1410
1aaaaa
b11111 aaaac
b11110 aaaad
b11001 aaaae

#1412
0aaaaa

#1415
1aaaaa
b1 aaaac
b11111 aaaad
b11110 aaaae

#1417
0aaaaa

#1420
1aaaaa
b1010 aaaac
b1 aaaad
b10000 aaaae

#1422
0aaaaa

#1425
1aaaaa
b10100 aaaac
b1010 aaaad
b101 aaaae

#1427
0aaaaa

#1430
1aaaaa
b11110 aaaac
b10100 aaaad
b1111 aaaae

#1432
0aaaaa

#1435
1aaaaa
b11111 aaaac
b11110 aaaad
b11001 aaaae

#1437
0aaaaa

#1440
1aaaaa
b1 aaaac
b11111 aaaad
b11110 aaaae

#1442
0aaaaa

#1445
1aaaaa
b1010 aaaac
b1 aaaad
b10000 aaaae

#1447
0aaaaa

#1450
1aaaaa
b10100 aaaac
b1010 aaaad
b101 aaaae

#1452
0aaaaa

#1455
1aaaaa
b11110 aaaac
b10100 aaaad
b1111 aaaae

#1457
0aaaaa

#1460
1aaaaa
b11111 aaaac
b11110 aaaad
b11001 aaaae

#1462
0aaaaa

#1465
1aaaaa
b1 aaaac
b11111 aaaad
b11110 aaaae

#1467
0aaaaa

#1470
1aaaaa
b1010 aaaac
b1 aaaad
b10000 aaaae

#1472
0aaaaa

#1475
1aaaaa
b10100 aaaac
b1010 aaaad
b101 aaaae

#1477
0aaaaa

#1480
1aaaaa
b11110 aaaac
b10100 aaaad
b1111 aaaae

#1482
0aaaaa

#1485
1aaaaa
b11111 aaaac
b11110 aaaad
b11001 aaaae

#1487
0aaaaa

#1490
1aaaaa
b1 aaaac
b11111 aaaad
b11110 aaaae

#1492
0aaaaa

#1495
1aaaaa
b1010 aaaac
b1 aaaad
b10000 aaaae

#1497
0aaaaa

#1500
1aaaaa
b10100 aaaac
b1010 aaaad
b101 aaaae

#1502
0aaaaa

#1505
1aaaaa
b11110 aaaac
b10100 aaaad
b1111 aaaae

#1507
0aaaaa

#1510
1aaaaa
b11111 aaaac
b11110 aaaad
b11001 aaaae

#1512
0aaaaa

#1515
1aaaaa
b1 aaaac
b11111 aaaad
b11110 aaaae

#1517
0aaaaa

#1520
1aaaaa
b1010 aaaac
b1 aaaad
b10000 aaaae

#1522
0aaaaa

#1525
1aaaaa
b10100 aaaac
b1010 aaaad
b101 aaaae

#1527
0aaaaa

#1530
1aaaaa
b11110 aaaac
b10100 aaaad
b1111 aaaae

#1532
0aaaaa

#1535
1aaaaa
b11111 aaaac
b11110 aaaad
b11001 aaaae

#1537
0aaaaa

#1540
1aaaaa
b1 aaaac
b11111 aaaad
b11110 aaaae

#1542
0aaaaa

#1545
1aaaaa
b1010 aaaac
b1 aaaad
b10000 aaaae

#1547
0aaaaa

#1550
1aaaaa
b10100 aaaac
b1010 aaaad
b101 aaaae

#1552
0aaaaa

#1555
1aaaaa
b11110 aaaac
b10100 aaaad
b1111 aaaae

#1557
0aaaaa

#1560
1aaaaa
b11111 aaaac
b11110 aaaad
b11001 aaaae

#1562
0aaaaa

#1565
1aaaaa
b1 aaaac
b11111 aaaad
b11110 aaaae

